﻿{
  // gets or sets service name
  "ServiceName": "WasabiOrders WebAPI",

  // gets or sets service description
  "ServiceDescription": "WasabiOrders Web Service",

  "SecurityKey": "/VOujctsW9lSVSO6Cx4lLH9C34KMgTdyk/8cbtNcBJyq7e7Rt4ts1A22b1ngb+o0KEuIrZSIJZ3GoHHXj8R78w==",

  // gets or sets value that determines whether automatic database migrations are used
  "UseDatabaseMigrations": true,

  // gets or sets database connection string
  "ConnectionString": "Data Source=(local);Initial Catalog=WasabiOrders;User ID=sa;Password=saionara;Connect Timeout=30;",

  // gets or sets port for service endpoint
  "ServicePort": 5000
}